-------------------------------------------------------------------------------
Test set: com.suphakorn.oxprograms.OXprogramTest
-------------------------------------------------------------------------------
Tests run: 1, Failures: 0, Errors: 0, Skipped: 0, Time elapsed: 0.02 s - in com.suphakorn.oxprograms.OXprogramTest
